{
    "type": "mysql",
    "host": "localhost",
    "port": 3306,
    "username": "root",
    "password": "root",
    "database": "node_db",
    "entities": ["src/**/**.entity{.ts,.js}"],
    "synchronize": true
  }